{
    "menu_entries": [
        {
            "message": "Find all",
            "key": "all",
            "callback": "find_all"
        },
        {
            "message": "Find",
            "key": "f",
            "callback": "find"
        },
        {
            "message": "Aggregate",
            "key": "a",
            "callback": "aggregate"
        },
        {
            "message": "Load your query",
            "key": "l",
            "callback": "load_query"
        },
        {
            "message": "Quit",
            "key": "q"
        }
    ]
}